// Jest Snapshot v1, https://goo.gl/fbAQLP

exports[`actions receivePhotos 1`] = `
Object {
  "payload": Object {
    "isFetching": false,
    "photos": Immutable.List [
      Immutable.Record {
        "id": "26598634217",
        "title": "IMG20180412110916",
        "ownerId": "144580423@N08",
        "ownerName": "vinhnguyen29",
        "description": "",
        "flickrUrl": "https://www.flickr.com/photos/144580423@N08/26598634217",
        "date": "2018-04-12 11:09:16",
        "views": 0,
        "thumb": "https://farm1.staticflickr.com/891/26598634217_ea6d676aff.jpg",
      },
      Immutable.Record {
        "id": "26598636007",
        "title": "IMG_1589.jpg",
        "ownerId": "36578749@N07",
        "ownerName": "are.skurdal",
        "description": "",
        "flickrUrl": "https://www.flickr.com/photos/36578749@N07/26598636007",
        "date": "2018-04-15 13:05:33",
        "views": 0,
        "thumb": "https://farm1.staticflickr.com/788/26598636007_459cc094e3.jpg",
      },
      Immutable.Record {
        "id": "27599100778",
        "title": "CASERTA Palace Movie Shoot 11 Apr 2018",
        "ownerId": "158007783@N02",
        "ownerName": "kievanmereel",
        "description": "",
        "flickrUrl": "https://www.flickr.com/photos/158007783@N02/27599100778",
        "date": "2018-04-11 12:42:14",
        "views": 0,
        "thumb": "https://farm1.staticflickr.com/899/27599100778_7af407131a.jpg",
      },
      Immutable.Record {
        "id": "39661766530",
        "title": "Wedding time",
        "ownerId": "156758815@N03",
        "ownerName": "achilebanlok",
        "description": "",
        "flickrUrl": "https://www.flickr.com/photos/156758815@N03/39661766530",
        "date": "2018-03-28 01:27:58",
        "views": 0,
        "thumb": "https://farm1.staticflickr.com/819/39661766530_844b830c6f.jpg",
      },
      Immutable.Record {
        "id": "39661767530",
        "title": "Sublind -Release Show Desdemonia- @ Kultufabrik- Esch-3.JPG",
        "ownerId": "125853430@N04",
        "ownerName": "Dark Princess Photos",
        "description": "",
        "flickrUrl": "https://www.flickr.com/photos/125853430@N04/39661767530",
        "date": "2018-04-14 19:21:07",
        "views": 0,
        "thumb": "https://farm1.staticflickr.com/792/39661767530_62d66d6605.jpg",
      },
      Immutable.Record {
        "id": "39661767940",
        "title": "2.13.2018 Night lights",
        "ownerId": "45188649@N05",
        "ownerName": "Kristine Runner",
        "description": "",
        "flickrUrl": "https://www.flickr.com/photos/45188649@N05/39661767940",
        "date": "2018-02-13 19:34:13",
        "views": 0,
        "thumb": "https://farm1.staticflickr.com/882/39661767940_191d006b2d.jpg",
      },
      Immutable.Record {
        "id": "40577298815",
        "title": "DIREKT AUS DEM PARK: SONNTAG 15.04.2018",
        "ownerId": "160254768@N06",
        "ownerName": "GO PAINTBALL ADVENTURE PARK",
        "description": " www.go-paintball.de/direkt-aus-dem-park-sonntag-15-04-2018/",
        "flickrUrl": "https://www.flickr.com/photos/160254768@N06/40577298815",
        "date": "2018-04-15 04:56:30",
        "views": 0,
        "thumb": "https://farm1.staticflickr.com/791/40577298815_e3c647f8e0.jpg",
      },
      Immutable.Record {
        "id": "40577299515",
        "title": "2018-04-15_01-56-13",
        "ownerId": "146479698@N03",
        "ownerName": "alex.gimnasta",
        "description": "",
        "flickrUrl": "https://www.flickr.com/photos/146479698@N03/40577299515",
        "date": "2018-04-15 11:51:57",
        "views": 0,
        "thumb": "https://farm1.staticflickr.com/863/40577299515_f44c4fd1e3.jpg",
      },
      Immutable.Record {
        "id": "40577300535",
        "title": "0b1a0ec2-99cb-43bc-8238-3fe0e2c55e4b",
        "ownerId": "134351709@N04",
        "ownerName": "Peter Neering",
        "description": "",
        "flickrUrl": "https://www.flickr.com/photos/134351709@N04/40577300535",
        "date": "2018-04-08 13:07:24",
        "views": 0,
        "thumb": "https://farm1.staticflickr.com/809/40577300535_aedd1deb6e.jpg",
      },
      Immutable.Record {
        "id": "40756506994",
        "title": "Sunbright boys vs Harriman",
        "ownerId": "148360534@N03",
        "ownerName": "ambautsky_three",
        "description": "",
        "flickrUrl": "https://www.flickr.com/photos/148360534@N03/40756506994",
        "date": "2018-04-13 19:18:37",
        "views": 0,
        "thumb": "https://farm1.staticflickr.com/801/40756506994_7f57c3feff.jpg",
      },
      Immutable.Record {
        "id": "41427427142",
        "title": "Source(s): dude, trust me",
        "ownerId": "158011776@N05",
        "ownerName": "Daily LOL Pics",
        "description": "

The post Source(s): dude, trust me appeared first on Daily LOL Pics.

via Daily LOL Pics ift.tt/2Hp69DG",
        "flickrUrl": "https://www.flickr.com/photos/158011776@N05/41427427142",
        "date": "2018-04-15 04:56:29",
        "views": 0,
        "thumb": "https://farm1.staticflickr.com/794/41427427142_ef86a616bd.jpg",
      },
      Immutable.Record {
        "id": "41427427292",
        "title": "Screen Shot 2018-04-14 at 8.55.49 AM",
        "ownerId": "64971983@N06",
        "ownerName": "Lx Cường",
        "description": "",
        "flickrUrl": "https://www.flickr.com/photos/64971983@N06/41427427292",
        "date": "2018-04-15 18:56:30",
        "views": 0,
        "thumb": "https://farm1.staticflickr.com/808/41427427292_2edf4d5351.jpg",
      },
    ],
  },
  "type": "RECEIVE_PHOTOS",
}
`;

exports[`actions requestPhotos 1`] = `
Object {
  "payload": Object {
    "isFetching": true,
  },
  "type": "REQUEST_PHOTOS",
}
`;

exports[`actions setSelectedPhoto null 1`] = `
Object {
  "payload": Object {
    "selectedId": null,
  },
  "type": "SET_SELECTED_PHOTO",
}
`;

exports[`actions setSelectedPhoto number 1`] = `
Object {
  "payload": Object {
    "selectedId": 1,
  },
  "type": "SET_SELECTED_PHOTO",
}
`;

exports[`actions updatePagination 1`] = `
Object {
  "payload": Object {
    "currentPage": 1,
    "pages": 84,
    "perPage": 12,
    "totalItems": "1000",
  },
  "type": "UPDATE_PAGINATION",
}
`;
